Homework 2: Sampling and Iteration in the Tidyverse
…
2E Make a species-island column in penguins using paste(). This is an awesome function that takes multiple strings, and slams them together using the argument sep = to define how the string should be combined. Try out paste(Hello, Goodbye, sep = !) to see how it works. Have the two be separated by _.

paste("Hello", "Goodbye", sep = "!") #paste attempt, use "" b/c words 

## [1] "Hello!Goodbye"

?paste #look into paste function
library(dplyr) #load dplyr
species_island_peng <- penguins%>% #new name for data, pull data from penguins data set
  mutate("species_island" = paste(species, island, sep = "_")) #add in column using mutate. call it species_island. species island combines columns species and island 
species_island_peng #view data

## # A tibble: 344 x 9
##    species island bill_length_mm bill_depth_mm flipper_length_ body_mass_g
##    <fct>   <fct>           <dbl>         <dbl>            <int>       <int>
##  1 Adelie  Torge           39.1          18.7              181        3750
##  2 Adelie  Torge           39.5          17.4              186        3800
##  3 Adelie  Torge           40.3          18                195        3250
##  4 Adelie  Torge           NA            NA                 NA          NA
##  5 Adelie  Torge           36.7          19.3              193        3450
##  6 Adelie  Torge           39.3          20.6              190        3650
##  7 Adelie  Torge           38.9          17.8              181        3625
##  8 Adelie  Torge           39.2          19.6              195        4675
##  9 Adelie  Torge           34.1          18.1              193        3475
## 10 Adelie  Torge           42            20.2              190        4250
## #  with 334 more rows, and 3 more variables: sex <fct>, year <int>,
## #   species_island <chr>
…
