Cross_validation_and_Bayes_Homework
…
Fit each model with 5-fold CV Does that result hold up, or is it due to overfitting? Lets evaluate by comparing 5-fold CV scores using RMSE. Lets do this efficiently, though!

A. Get things ready! Make a 5-fold cross validation tibble using rsample::vfold_cv() and then combine each possible fold with the polynomials 1:5 using tidyr::crossing()

five_fold_tibb_breath <- vfold_cv(data =breathing, v=5)%>% #create five folds
  crossing(p=1:5) #do a cross of the folds with polynomials
five_fold_tibb_breath

## # A tibble: 25 x 3
##    splits         id        p
##    <list>         <chr> <int>
##  1 <split [24/6]> Fold1     1
##  2 <split [24/6]> Fold1     2
##  3 <split [24/6]> Fold1     3
##  4 <split [24/6]> Fold1     4
##  5 <split [24/6]> Fold1     5
##  6 <split [24/6]> Fold2     1
##  7 <split [24/6]> Fold2     2
##  8 <split [24/6]> Fold2     3
##  9 <split [24/6]> Fold2     4
## 10 <split [24/6]> Fold2     5
## #  with 15 more rows

B. Now you have splits and a column of coefficients. Use purr::map2() to make a list column of fit models, where you use the splits and data and the polynomials for you poly() call in the model.

five_fold_tibb_breath <- five_fold_tibb_breath %>% #take table 
  mutate(fit_models= map2(.x=splits, #create a new model that creates a lm of the folds and polynomials
                          p,
                          ~lm(ventilation~poly(progesterone,.y),
                          data= analysis(.x))))
five_fold_tibb_breath

## # A tibble: 25 x 4
##    splits         id        p fit_models
##    <list>         <chr> <int> <list>    
##  1 <split [24/6]> Fold1     1 <lm>      
##  2 <split [24/6]> Fold1     2 <lm>      
##  3 <split [24/6]> Fold1     3 <lm>      
##  4 <split [24/6]> Fold1     4 <lm>      
##  5 <split [24/6]> Fold1     5 <lm>      
##  6 <split [24/6]> Fold2     1 <lm>      
##  7 <split [24/6]> Fold2     2 <lm>      
##  8 <split [24/6]> Fold2     3 <lm>      
##  9 <split [24/6]> Fold2     4 <lm>      
## 10 <split [24/6]> Fold2     5 <lm>      
## #  with 15 more rows

C. Great! Now, calculate the rmse for each fold/polynomial combination as we did in lab.

five_fold_tibb_breath_rmse <- five_fold_tibb_breath %>%
  #create new col rmse with map2 iterating over all splits
    #and fit models
  mutate(rmse = map2_dbl(.x= splits, .y= fit_models, #split x , mod y
                          #model is .y b/c mod is our second arg
                        ~rmse(model = .y, data = assessment(.x))))
five_fold_tibb_breath_rmse

## # A tibble: 25 x 5
##    splits         id        p fit_models  rmse
##    <list>         <chr> <int> <list>     <dbl>
##  1 <split [24/6]> Fold1     1 <lm>        5.82
##  2 <split [24/6]> Fold1     2 <lm>        6.58
##  3 <split [24/6]> Fold1     3 <lm>        6.62
##  4 <split [24/6]> Fold1     4 <lm>        9.87
##  5 <split [24/6]> Fold1     5 <lm>        9.03
##  6 <split [24/6]> Fold2     1 <lm>        8.44
##  7 <split [24/6]> Fold2     2 <lm>        8.42
##  8 <split [24/6]> Fold2     3 <lm>        8.47
##  9 <split [24/6]> Fold2     4 <lm>        8.59
## 10 <split [24/6]> Fold2     5 <lm>        7.96
## #  with 15 more rows
…
#P(H|D) num- P(D)

num2 <- cross_peng%>%
  rowwise() %>% #take grid and then go row by row and find numerator 
  mutate(num= bayes_num(m,s))

pd= log(sum(exp(num2$num))) # pd formula

post_full <- num2 %>%
  rowwise() %>% #take num function and go row by row annd then add a col with posterior by sub num from p(D) value
  mutate(posterior= num - pd)

post_full

## # A tibble: 10,000 x 4
## # Rowwise: 
##        m     s   num posterior
##    <dbl> <dbl> <dbl>     <dbl>
##  1   210  2    -262.     -99.8
##  2   210  2.04 -257.     -94.7
##  3   210  2.08 -252.     -89.9
##  4   210  2.12 -247.     -85.3
##  5   210  2.16 -243.     -81.1
##  6   210  2.20 -239.     -77.2
##  7   210  2.24 -236.     -73.5
##  8   210  2.28 -232.     -70.0
##  9   210  2.32 -229.     -66.8
## 10   210  2.36 -226.     -63.7
## #  with 9,990 more rows
…
